24 0:0.00632 1:18 2:2.31 4:0.538 5:6.575 6:65.2 7:4.09 8:1 9:296 10:15.3 11:396.9 12:4.98
21.6 0:0.02731 2:7.07 4:0.469 5:6.421 6:78.90000000000001 7:4.9671 8:2 9:242 10:17.8 11:396.9 12:9.140000000000001
34.7 0:0.02729 2:7.07 4:0.469 5:7.185 6:61.1 7:4.9671 8:2 9:242 10:17.8 11:392.83 12:4.03
33.4 0:0.03237 2:2.18 4:0.458 5:6.998 6:45.8 7:6.0622 8:3 9:222 10:18.7 11:394.63 12:2.94
36.2 0:0.06905 2:2.18 4:0.458 5:7.147 6:54.2 7:6.0622 8:3 9:222 10:18.7 11:396.9 12:5.33
28.7 0:0.02985 2:2.18 4:0.458 5:6.43 6:58.7 7:6.0622 8:3 9:222 10:18.7 11:394.12 12:5.21
22.9 0:0.08828999999999999 1:12.5 2:7.87 4:0.524 5:6.012 6:66.59999999999999 7:5.5605 8:5 9:311 10:15.2 11:395.6 12:12.43
27.1 0:0.14455 1:12.5 2:7.87 4:0.524 5:6.172 6:96.09999999999999 7:5.9505 8:5 9:311 10:15.2 11:396.9 12:19.15
16.5 0:0.21124 1:12.5 2:7.87 4:0.524 5:5.631 6:100 7:6.0821 8:5 9:311 10:15.2 11:386.63 12:29.93
18.9 0:0.17004 1:12.5 2:7.87 4:0.524 5:6.004 6:85.90000000000001 7:6.5921 8:5 9:311 10:15.2 11:386.71 12:17.1
15 0:0.22489 1:12.5 2:7.87 4:0.524 5:6.377 6:94.3 7:6.3467 8:5 9:311 10:15.2 11:392.52 12:20.45
18.9 0:0.11747 1:12.5 2:7.87 4:0.524 5:6.009 6:82.90000000000001 7:6.2267 8:5 9:311 10:15.2 11:396.9 12:13.27
21.7 0:0.09378 1:12.5 2:7.87 4:0.524 5:5.889 6:39 7:5.4509 8:5 9:311 10:15.2 11:390.5 12:15.71
20.4 0:0.62976 2:8.140000000000001 4:0.538 5:5.949 6:61.8 7:4.7075 8:4 9:307 10:21 11:396.9 12:8.26
18.2 0:0.63796 2:8.140000000000001 4:0.538 5:6.096 6:84.5 7:4.4619 8:4 9:307 10:21 11:380.02 12:10.26
19.9 0:0.62739 2:8.140000000000001 4:0.538 5:5.834 6:56.5 7:4.4986 8:4 9:307 10:21 11:395.62 12:8.470000000000001
23.1 0:1.05393 2:8.140000000000001 4:0.538 5:5.935 6:29.3 7:4.4986 8:4 9:307 10:21 11:386.85 12:6.58
17.5 0:0.7842 2:8.140000000000001 4:0.538 5:5.99 6:81.7 7:4.2579 8:4 9:307 10:21 11:386.75 12:14.67
20.2 0:0.80271 2:8.140000000000001 4:0.538 5:5.456 6:36.6 7:3.7965 8:4 9:307 10:21 11:288.99 12:11.69
18.2 0:0.7258 2:8.140000000000001 4:0.538 5:5.727 6:69.5 7:3.7965 8:4 9:307 10:21 11:390.95 12:11.28
13.6 0:1.25179 2:8.140000000000001 4:0.538 5:5.57 6:98.09999999999999 7:3.7979 8:4 9:307 10:21 11:376.57 12:21.02
19.6 0:0.85204 2:8.140000000000001 4:0.538 5:5.965 6:89.2 7:4.0123 8:4 9:307 10:21 11:392.53 12:13.83
15.2 0:1.23247 2:8.140000000000001 4:0.538 5:6.142 6:91.7 7:3.9769 8:4 9:307 10:21 11:396.9 12:18.72
14.5 0:0.98843 2:8.140000000000001 4:0.538 5:5.813 6:100 7:4.0952 8:4 9:307 10:21 11:394.54 12:19.88
15.6 0:0.75026 2:8.140000000000001 4:0.538 5:5.924 6:94.09999999999999 7:4.3996 8:4 9:307 10:21 11:394.33 12:16.3
13.9 0:0.84054 2:8.140000000000001 4:0.538 5:5.599 6:85.7 7:4.4546 8:4 9:307 10:21 11:303.42 12:16.51
16.6 0:0.67191 2:8.140000000000001 4:0.538 5:5.813 6:90.3 7:4.682 8:4 9:307 10:21 11:376.88 12:14.81
14.8 0:0.95577 2:8.140000000000001 4:0.538 5:6.047 6:88.8 7:4.4534 8:4 9:307 10:21 11:306.38 12:17.28
18.4 0:0.77299 2:8.140000000000001 4:0.538 5:6.495 6:94.40000000000001 7:4.4547 8:4 9:307 10:21 11:387.94 12:12.8
21 0:1.00245 2:8.140000000000001 4:0.538 5:6.674 6:87.3 7:4.239 8:4 9:307 10:21 11:380.23 12:11.98
12.7 0:1.13081 2:8.140000000000001 4:0.538 5:5.713 6:94.09999999999999 7:4.233 8:4 9:307 10:21 11:360.17 12:22.6
14.5 0:1.35472 2:8.140000000000001 4:0.538 5:6.072 6:100 7:4.175 8:4 9:307 10:21 11:376.73 12:13.04
13.2 0:1.38799 2:8.140000000000001 4:0.538 5:5.95 6:82 7:3.99 8:4 9:307 10:21 11:232.6 12:27.71
13.1 0:1.15172 2:8.140000000000001 4:0.538 5:5.701 6:95 7:3.7872 8:4 9:307 10:21 11:358.77 12:18.35
13.5 0:1.61282 2:8.140000000000001 4:0.538 5:6.096 6:96.90000000000001 7:3.7598 8:4 9:307 10:21 11:248.31 12:20.34
18.9 0:0.06417 2:5.96 4:0.499 5:5.933 6:68.2 7:3.3603 8:5 9:279 10:19.2 11:396.9 12:9.68
20 0:0.09744 2:5.96 4:0.499 5:5.841 6:61.4 7:3.3779 8:5 9:279 10:19.2 11:377.56 12:11.41
21 0:0.08014 2:5.96 4:0.499 5:5.85 6:41.5 7:3.9342 8:5 9:279 10:19.2 11:396.9 12:8.77
24.7 0:0.17505 2:5.96 4:0.499 5:5.966 6:30.2 7:3.8473 8:5 9:279 10:19.2 11:393.43 12:10.13
30.8 0:0.02763 1:75 2:2.95 4:0.428 5:6.595 6:21.8 7:5.4011 8:3 9:252 10:18.3 11:395.63 12:4.32
34.9 0:0.03359 1:75 2:2.95 4:0.428 5:7.024 6:15.8 7:5.4011 8:3 9:252 10:18.3 11:395.62 12:1.98
26.6 0:0.12744 2:6.91 4:0.448 5:6.77 6:2.9 7:5.7209 8:3 9:233 10:17.9 11:385.41 12:4.84
25.3 0:0.1415 2:6.91 4:0.448 5:6.169 6:6.6 7:5.7209 8:3 9:233 10:17.9 11:383.37 12:5.81
24.7 0:0.15936 2:6.91 4:0.448 5:6.211 6:6.5 7:5.7209 8:3 9:233 10:17.9 11:394.46 12:7.44
21.2 0:0.12269 2:6.91 4:0.448 5:6.069 6:40 7:5.7209 8:3 9:233 10:17.9 11:389.39 12:9.550000000000001
19.3 0:0.17142 2:6.91 4:0.448 5:5.682 6:33.8 7:5.1004 8:3 9:233 10:17.9 11:396.9 12:10.21
20 0:0.18836 2:6.91 4:0.448 5:5.786 6:33.3 7:5.1004 8:3 9:233 10:17.9 11:396.9 12:14.15
16.6 0:0.22927 2:6.91 4:0.448 5:6.03 6:85.5 7:5.6894 8:3 9:233 10:17.9 11:392.74 12:18.8
14.4 0:0.25387 2:6.91 4:0.448 5:5.399 6:95.3 7:5.87 8:3 9:233 10:17.9 11:396.9 12:30.81
19.4 0:0.21977 2:6.91 4:0.448 5:5.602 6:62 7:6.0877 8:3 9:233 10:17.9 11:396.9 12:16.2
19.7 0:0.08873 1:21 2:5.64 4:0.439 5:5.963 6:45.7 7:6.8147 8:4 9:243 10:16.8 11:395.56 12:13.45
20.5 0:0.04337 1:21 2:5.64 4:0.439 5:6.115 6:63 7:6.8147 8:4 9:243 10:16.8 11:393.97 12:9.43
25 0:0.0536 1:21 2:5.64 4:0.439 5:6.511 6:21.1 7:6.8147 8:4 9:243 10:16.8 11:396.9 12:5.28
23.4 0:0.04981 1:21 2:5.64 4:0.439 5:5.998 6:21.4 7:6.8147 8:4 9:243 10:16.8 11:396.9 12:8.43
18.9 0:0.0136 1:75 2:4 4:0.41 5:5.888 6:47.6 7:7.3197 8:3 9:469 10:21.1 11:396.9 12:14.8
35.4 0:0.01311 1:90 2:1.22 4:0.403 5:7.249 6:21.9 7:8.6966 8:5 9:226 10:17.9 11:395.93 12:4.81
24.7 0:0.02055 1:85 2:0.74 4:0.41 5:6.383 6:35.7 7:9.1876 8:2 9:313 10:17.3 11:396.9 12:5.77
31.6 0:0.01432 1:100 2:1.32 4:0.411 5:6.816 6:40.5 7:8.3248 8:5 9:256 10:15.1 11:392.9 12:3.95
23.3 0:0.15445 1:25 2:5.13 4:0.453 5:6.145 6:29.2 7:7.8148 8:8 9:284 10:19.7 11:390.68 12:6.86
19.6 0:0.10328 1:25 2:5.13 4:0.453 5:5.927 6:47.2 7:6.932 8:8 9:284 10:19.7 11:396.9 12:9.220000000000001
18.7 0:0.14932 1:25 2:5.13 4:0.453 5:5.741 6:66.2 7:7.2254 8:8 9:284 10:19.7 11:395.11 12:13.15
16 0:0.17171 1:25 2:5.13 4:0.453 5:5.966 6:93.40000000000001 7:6.8185 8:8 9:284 10:19.7 11:378.08 12:14.44
22.2 0:0.11027 1:25 2:5.13 4:0.453 5:6.456 6:67.8 7:7.2255 8:8 9:284 10:19.7 11:396.9 12:6.73
25 0:0.1265 1:25 2:5.13 4:0.453 5:6.762 6:43.4 7:7.9809 8:8 9:284 10:19.7 11:395.58 12:9.5
33 0:0.01951 1:17.5 2:1.38 4:0.4161 5:7.104 6:59.5 7:9.222899999999999 8:3 9:216 10:18.6 11:393.24 12:8.050000000000001
23.5 0:0.03584 1:80 2:3.37 4:0.398 5:6.29 6:17.8 7:6.6115 8:4 9:337 10:16.1 11:396.9 12:4.67
19.4 0:0.04379 1:80 2:3.37 4:0.398 5:5.787 6:31.1 7:6.6115 8:4 9:337 10:16.1 11:396.9 12:10.24
22 0:0.05789 1:12.5 2:6.07 4:0.409 5:5.878 6:21.4 7:6.498 8:4 9:345 10:18.9 11:396.21 12:8.1
17.4 0:0.13554 1:12.5 2:6.07 4:0.409 5:5.594 6:36.8 7:6.498 8:4 9:345 10:18.9 11:396.9 12:13.09
20.9 0:0.12816 1:12.5 2:6.07 4:0.409 5:5.885 6:33 7:6.498 8:4 9:345 10:18.9 11:396.9 12:8.789999999999999
24.2 0:0.08826000000000001 2:10.81 4:0.413 5:6.417 6:6.6 7:5.2873 8:4 9:305 10:19.2 11:383.73 12:6.72
21.7 0:0.15876 2:10.81 4:0.413 5:5.961 6:17.5 7:5.2873 8:4 9:305 10:19.2 11:376.94 12:9.880000000000001
22.8 0:0.09164 2:10.81 4:0.413 5:6.065 6:7.8 7:5.2873 8:4 9:305 10:19.2 11:390.91 12:5.52
23.4 0:0.19539 2:10.81 4:0.413 5:6.245 6:6.2 7:5.2873 8:4 9:305 10:19.2 11:377.17 12:7.54
24.1 0:0.07896 2:12.83 4:0.437 5:6.273 6:6 7:4.2515 8:5 9:398 10:18.7 11:394.92 12:6.78
21.4 0:0.09512 2:12.83 4:0.437 5:6.286 6:45 7:4.5026 8:5 9:398 10:18.7 11:383.23 12:8.94
20 0:0.10153 2:12.83 4:0.437 5:6.279 6:74.5 7:4.0522 8:5 9:398 10:18.7 11:373.66 12:11.97
20.8 0:0.08706999999999999 2:12.83 4:0.437 5:6.14 6:45.8 7:4.0905 8:5 9:398 10:18.7 11:386.96 12:10.27
21.2 0:0.05646 2:12.83 4:0.437 5:6.232 6:53.7 7:5.0141 8:5 9:398 10:18.7 11:386.4 12:12.34
20.3 0:0.08387 2:12.83 4:0.437 5:5.874 6:36.6 7:4.5026 8:5 9:398 10:18.7 11:396.06 12:9.1
28 0:0.04113 1:25 2:4.86 4:0.426 5:6.727 6:33.5 7:5.4007 8:4 9:281 10:19 11:396.9 12:5.29
23.9 0:0.04462 1:25 2:4.86 4:0.426 5:6.619 6:70.40000000000001 7:5.4007 8:4 9:281 10:19 11:395.63 12:7.22
24.8 0:0.03659 1:25 2:4.86 4:0.426 5:6.302 6:32.2 7:5.4007 8:4 9:281 10:19 11:396.9 12:6.72
22.9 0:0.03551 1:25 2:4.86 4:0.426 5:6.167 6:46.7 7:5.4007 8:4 9:281 10:19 11:390.64 12:7.51
23.9 0:0.05059 2:4.49 4:0.449 5:6.389 6:48 7:4.7794 8:3 9:247 10:18.5 11:396.9 12:9.619999999999999
26.6 0:0.05735 2:4.49 4:0.449 5:6.63 6:56.1 7:4.4377 8:3 9:247 10:18.5 11:392.3 12:6.53
22.5 0:0.05188 2:4.49 4:0.449 5:6.015 6:45.1 7:4.4272 8:3 9:247 10:18.5 11:395.99 12:12.86
22.2 0:0.07151 2:4.49 4:0.449 5:6.121 6:56.8 7:3.7476 8:3 9:247 10:18.5 11:395.15 12:8.44
23.6 0:0.0566 2:3.41 4:0.489 5:7.007 6:86.3 7:3.4217 8:2 9:270 10:17.8 11:396.9 12:5.5
28.7 0:0.05302 2:3.41 4:0.489 5:7.079 6:63.1 7:3.4145 8:2 9:270 10:17.8 11:396.06 12:5.7
22.6 0:0.04684 2:3.41 4:0.489 5:6.417 6:66.09999999999999 7:3.0923 8:2 9:270 10:17.8 11:392.18 12:8.81
22 0:0.03932 2:3.41 4:0.489 5:6.405 6:73.90000000000001 7:3.0921 8:2 9:270 10:17.8 11:393.55 12:8.199999999999999
22.9 0:0.04203 1:28 2:15.04 4:0.464 5:6.442 6:53.6 7:3.6659 8:4 9:270 10:18.2 11:395.01 12:8.16
25 0:0.02875 1:28 2:15.04 4:0.464 5:6.211 6:28.9 7:3.6659 8:4 9:270 10:18.2 11:396.33 12:6.21
20.6 0:0.04294 1:28 2:15.04 4:0.464 5:6.249 6:77.3 7:3.615 8:4 9:270 10:18.2 11:396.9 12:10.59
28.4 0:0.12204 2:2.89 4:0.445 5:6.625 6:57.8 7:3.4952 8:2 9:276 10:18 11:357.98 12:6.65
21.4 0:0.11504 2:2.89 4:0.445 5:6.163 6:69.59999999999999 7:3.4952 8:2 9:276 10:18 11:391.83 12:11.34
38.7 0:0.12083 2:2.89 4:0.445 5:8.069000000000001 6:76 7:3.4952 8:2 9:276 10:18 11:396.9 12:4.21
43.8 0:0.08187 2:2.89 4:0.445 5:7.82 6:36.9 7:3.4952 8:2 9:276 10:18 11:393.53 12:3.57
33.2 0:0.06859999999999999 2:2.89 4:0.445 5:7.416 6:62.5 7:3.4952 8:2 9:276 10:18 11:396.9 12:6.19
27.5 0:0.14866 2:8.56 4:0.52 5:6.727 6:79.90000000000001 7:2.7778 8:5 9:384 10:20.9 11:394.76 12:9.42
26.5 0:0.11432 2:8.56 4:0.52 5:6.781 6:71.3 7:2.8561 8:5 9:384 10:20.9 11:395.58 12:7.67
18.6 0:0.22876 2:8.56 4:0.52 5:6.405 6:85.40000000000001 7:2.7147 8:5 9:384 10:20.9 11:70.8 12:10.63
19.3 0:0.21161 2:8.56 4:0.52 5:6.137 6:87.40000000000001 7:2.7147 8:5 9:384 10:20.9 11:394.47 12:13.44
20.1 0:0.1396 2:8.56 4:0.52 5:6.167 6:90 7:2.421 8:5 9:384 10:20.9 11:392.69 12:12.33
19.5 0:0.13262 2:8.56 4:0.52 5:5.851 6:96.7 7:2.1069 8:5 9:384 10:20.9 11:394.05 12:16.47
19.5 0:0.1712 2:8.56 4:0.52 5:5.836 6:91.90000000000001 7:2.211 8:5 9:384 10:20.9 11:395.67 12:18.66
20.4 0:0.13117 2:8.56 4:0.52 5:6.127 6:85.2 7:2.1224 8:5 9:384 10:20.9 11:387.69 12:14.09
19.8 0:0.12802 2:8.56 4:0.52 5:6.474 6:97.09999999999999 7:2.4329 8:5 9:384 10:20.9 11:395.24 12:12.27
19.4 0:0.26363 2:8.56 4:0.52 5:6.229 6:91.2 7:2.5451 8:5 9:384 10:20.9 11:391.23 12:15.55
21.7 0:0.10793 2:8.56 4:0.52 5:6.195 6:54.4 7:2.7778 8:5 9:384 10:20.9 11:393.49 12:13
22.8 0:0.10084 2:10.01 4:0.547 5:6.715 6:81.59999999999999 7:2.6775 8:6 9:432 10:17.8 11:395.59 12:10.16
18.8 0:0.12329 2:10.01 4:0.547 5:5.913 6:92.90000000000001 7:2.3534 8:6 9:432 10:17.8 11:394.95 12:16.21
18.7 0:0.22212 2:10.01 4:0.547 5:6.092 6:95.40000000000001 7:2.548 8:6 9:432 10:17.8 11:396.9 12:17.09
18.5 0:0.14231 2:10.01 4:0.547 5:6.254 6:84.2 7:2.2565 8:6 9:432 10:17.8 11:388.74 12:10.45
18.3 0:0.17134 2:10.01 4:0.547 5:5.928 6:88.2 7:2.4631 8:6 9:432 10:17.8 11:344.91 12:15.76
21.2 0:0.13158 2:10.01 4:0.547 5:6.176 6:72.5 7:2.7301 8:6 9:432 10:17.8 11:393.3 12:12.04
19.2 0:0.15098 2:10.01 4:0.547 5:6.021 6:82.59999999999999 7:2.7474 8:6 9:432 10:17.8 11:394.51 12:10.3
20.4 0:0.13058 2:10.01 4:0.547 5:5.872 6:73.09999999999999 7:2.4775 8:6 9:432 10:17.8 11:338.63 12:15.37
19.3 0:0.14476 2:10.01 4:0.547 5:5.731 6:65.2 7:2.7592 8:6 9:432 10:17.8 11:391.5 12:13.61
22 0:0.06899 2:25.65 4:0.581 5:5.87 6:69.7 7:2.2577 8:2 9:188 10:19.1 11:389.15 12:14.37
20.3 0:0.07165000000000001 2:25.65 4:0.581 5:6.004 6:84.09999999999999 7:2.1974 8:2 9:188 10:19.1 11:377.67 12:14.27
20.5 0:0.09299 2:25.65 4:0.581 5:5.961 6:92.90000000000001 7:2.0869 8:2 9:188 10:19.1 11:378.09 12:17.93
17.3 0:0.15038 2:25.65 4:0.581 5:5.856 6:97 7:1.9444 8:2 9:188 10:19.1 11:370.31 12:25.41
18.8 0:0.09848999999999999 2:25.65 4:0.581 5:5.879 6:95.8 7:2.0063 8:2 9:188 10:19.1 11:379.38 12:17.58
21.4 0:0.16902 2:25.65 4:0.581 5:5.986 6:88.40000000000001 7:1.9929 8:2 9:188 10:19.1 11:385.02 12:14.81
15.7 0:0.38735 2:25.65 4:0.581 5:5.613 6:95.59999999999999 7:1.7572 8:2 9:188 10:19.1 11:359.29 12:27.26
16.2 0:0.25915 2:21.89 4:0.624 5:5.693 6:96 7:1.7883 8:4 9:437 10:21.2 11:392.11 12:17.19
18 0:0.32543 2:21.89 4:0.624 5:6.431 6:98.8 7:1.8125 8:4 9:437 10:21.2 11:396.9 12:15.39
14.3 0:0.88125 2:21.89 4:0.624 5:5.637 6:94.7 7:1.9799 8:4 9:437 10:21.2 11:396.9 12:18.34
19.2 0:0.34006 2:21.89 4:0.624 5:6.458 6:98.90000000000001 7:2.1185 8:4 9:437 10:21.2 11:395.04 12:12.6
19.6 0:1.19294 2:21.89 4:0.624 5:6.326 6:97.7 7:2.271 8:4 9:437 10:21.2 11:396.9 12:12.26
23 0:0.59005 2:21.89 4:0.624 5:6.372 6:97.90000000000001 7:2.3274 8:4 9:437 10:21.2 11:385.76 12:11.12
18.4 0:0.32982 2:21.89 4:0.624 5:5.822 6:95.40000000000001 7:2.4699 8:4 9:437 10:21.2 11:388.69 12:15.03
15.6 0:0.97617 2:21.89 4:0.624 5:5.757 6:98.40000000000001 7:2.346 8:4 9:437 10:21.2 11:262.76 12:17.31
18.1 0:0.5577800000000001 2:21.89 4:0.624 5:6.335 6:98.2 7:2.1107 8:4 9:437 10:21.2 11:394.67 12:16.96
17.4 0:0.32264 2:21.89 4:0.624 5:5.942 6:93.5 7:1.9669 8:4 9:437 10:21.2 11:378.25 12:16.9
17.1 0:0.35233 2:21.89 4:0.624 5:6.454 6:98.40000000000001 7:1.8498 8:4 9:437 10:21.2 11:394.08 12:14.59
13.3 0:0.2498 2:21.89 4:0.624 5:5.857 6:98.2 7:1.6686 8:4 9:437 10:21.2 11:392.04 12:21.32
17.8 0:0.54452 2:21.89 4:0.624 5:6.151 6:97.90000000000001 7:1.6687 8:4 9:437 10:21.2 11:396.9 12:18.46
14 0:0.2909 2:21.89 4:0.624 5:6.174 6:93.59999999999999 7:1.6119 8:4 9:437 10:21.2 11:388.08 12:24.16
14.4 0:1.62864 2:21.89 4:0.624 5:5.019 6:100 7:1.4394 8:4 9:437 10:21.2 11:396.9 12:34.41
13.4 0:3.32105 2:19.58 3:1 4:0.871 5:5.403 6:100 7:1.3216 8:5 9:403 10:14.7 11:396.9 12:26.82
15.6 0:4.0974 2:19.58 4:0.871 5:5.468 6:100 7:1.4118 8:5 9:403 10:14.7 11:396.9 12:26.42
11.8 0:2.77974 2:19.58 4:0.871 5:4.903 6:97.8 7:1.3459 8:5 9:403 10:14.7 11:396.9 12:29.29
13.8 0:2.37934 2:19.58 4:0.871 5:6.13 6:100 7:1.4191 8:5 9:403 10:14.7 11:172.91 12:27.8
15.6 0:2.15505 2:19.58 4:0.871 5:5.628 6:100 7:1.5166 8:5 9:403 10:14.7 11:169.27 12:16.65
14.6 0:2.36862 2:19.58 4:0.871 5:4.926 6:95.7 7:1.4608 8:5 9:403 10:14.7 11:391.71 12:29.53
17.8 0:2.33099 2:19.58 4:0.871 5:5.186 6:93.8 7:1.5296 8:5 9:403 10:14.7 11:356.99 12:28.32
15.4 0:2.73397 2:19.58 4:0.871 5:5.597 6:94.90000000000001 7:1.5257 8:5 9:403 10:14.7 11:351.85 12:21.45
21.5 0:1.6566 2:19.58 4:0.871 5:6.122 6:97.3 7:1.618 8:5 9:403 10:14.7 11:372.8 12:14.1
19.6 0:1.49632 2:19.58 4:0.871 5:5.404 6:100 7:1.5916 8:5 9:403 10:14.7 11:341.6 12:13.28
15.3 0:1.12658 2:19.58 3:1 4:0.871 5:5.012 6:88 7:1.6102 8:5 9:403 10:14.7 11:343.28 12:12.12
19.4 0:2.14918 2:19.58 4:0.871 5:5.709 6:98.5 7:1.6232 8:5 9:403 10:14.7 11:261.95 12:15.79
17 0:1.41385 2:19.58 3:1 4:0.871 5:6.129 6:96 7:1.7494 8:5 9:403 10:14.7 11:321.02 12:15.12
15.6 0:3.53501 2:19.58 3:1 4:0.871 5:6.152 6:82.59999999999999 7:1.7455 8:5 9:403 10:14.7 11:88.01000000000001 12:15.02
13.1 0:2.44668 2:19.58 4:0.871 5:5.272 6:94 7:1.7364 8:5 9:403 10:14.7 11:88.63 12:16.14
41.3 0:1.22358 2:19.58 4:0.605 5:6.943 6:97.40000000000001 7:1.8773 8:5 9:403 10:14.7 11:363.43 12:4.59
24.3 0:1.34284 2:19.58 4:0.605 5:6.066 6:100 7:1.7573 8:5 9:403 10:14.7 11:353.89 12:6.43
23.3 0:1.42502 2:19.58 4:0.871 5:6.51 6:100 7:1.7659 8:5 9:403 10:14.7 11:364.31 12:7.39
27 0:1.27346 2:19.58 3:1 4:0.605 5:6.25 6:92.59999999999999 7:1.7984 8:5 9:403 10:14.7 11:338.92 12:5.5
50 0:1.46336 2:19.58 4:0.605 5:7.489 6:90.8 7:1.9709 8:5 9:403 10:14.7 11:374.43 12:1.73
50 0:1.83377 2:19.58 3:1 4:0.605 5:7.802 6:98.2 7:2.0407 8:5 9:403 10:14.7 11:389.61 12:1.92
50 0:1.51902 2:19.58 3:1 4:0.605 5:8.375 6:93.90000000000001 7:2.162 8:5 9:403 10:14.7 11:388.45 12:3.32
22.7 0:2.24236 2:19.58 4:0.605 5:5.854 6:91.8 7:2.422 8:5 9:403 10:14.7 11:395.11 12:11.64
25 0:2.924 2:19.58 4:0.605 5:6.101 6:93 7:2.2834 8:5 9:403 10:14.7 11:240.16 12:9.81
50 0:2.01019 2:19.58 4:0.605 5:7.929 6:96.2 7:2.0459 8:5 9:403 10:14.7 11:369.3 12:3.7
23.8 0:1.80028 2:19.58 4:0.605 5:5.877 6:79.2 7:2.4259 8:5 9:403 10:14.7 11:227.61 12:12.14
23.8 0:2.3004 2:19.58 4:0.605 5:6.319 6:96.09999999999999 7:2.1 8:5 9:403 10:14.7 11:297.09 12:11.1
22.3 0:2.44953 2:19.58 4:0.605 5:6.402 6:95.2 7:2.2625 8:5 9:403 10:14.7 11:330.04 12:11.32
17.4 0:1.20742 2:19.58 4:0.605 5:5.875 6:94.59999999999999 7:2.4259 8:5 9:403 10:14.7 11:292.29 12:14.43
19.1 0:2.3139 2:19.58 4:0.605 5:5.88 6:97.3 7:2.3887 8:5 9:403 10:14.7 11:348.13 12:12.03
23.1 0:0.13914 2:4.05 4:0.51 5:5.572 6:88.5 7:2.5961 8:5 9:296 10:16.6 11:396.9 12:14.69
23.6 0:0.09178 2:4.05 4:0.51 5:6.416 6:84.09999999999999 7:2.6463 8:5 9:296 10:16.6 11:395.5 12:9.039999999999999
22.6 0:0.08447 2:4.05 4:0.51 5:5.859 6:68.7 7:2.7019 8:5 9:296 10:16.6 11:393.23 12:9.640000000000001
29.4 0:0.06664 2:4.05 4:0.51 5:6.546 6:33.1 7:3.1323 8:5 9:296 10:16.6 11:390.96 12:5.33
23.2 0:0.07022 2:4.05 4:0.51 5:6.02 6:47.2 7:3.5549 8:5 9:296 10:16.6 11:393.23 12:10.11
24.6 0:0.05425 2:4.05 4:0.51 5:6.315 6:73.40000000000001 7:3.3175 8:5 9:296 10:16.6 11:395.6 12:6.29
29.9 0:0.06642000000000001 2:4.05 4:0.51 5:6.86 6:74.40000000000001 7:2.9153 8:5 9:296 10:16.6 11:391.27 12:6.92
37.2 0:0.0578 2:2.46 4:0.488 5:6.98 6:58.4 7:2.829 8:3 9:193 10:17.8 11:396.9 12:5.04
39.8 0:0.06587999999999999 2:2.46 4:0.488 5:7.765 6:83.3 7:2.741 8:3 9:193 10:17.8 11:395.56 12:7.56
36.2 0:0.06888 2:2.46 4:0.488 5:6.144 6:62.2 7:2.5979 8:3 9:193 10:17.8 11:396.9 12:9.449999999999999
37.9 0:0.09103 2:2.46 4:0.488 5:7.155 6:92.2 7:2.7006 8:3 9:193 10:17.8 11:394.12 12:4.82
32.5 0:0.10008 2:2.46 4:0.488 5:6.563 6:95.59999999999999 7:2.847 8:3 9:193 10:17.8 11:396.9 12:5.68
26.4 0:0.08308 2:2.46 4:0.488 5:5.604 6:89.8 7:2.9879 8:3 9:193 10:17.8 11:391 12:13.98
29.6 0:0.06047 2:2.46 4:0.488 5:6.153 6:68.8 7:3.2797 8:3 9:193 10:17.8 11:387.11 12:13.15
50 0:0.05602 2:2.46 4:0.488 5:7.831 6:53.6 7:3.1992 8:3 9:193 10:17.8 11:392.63 12:4.45
32 0:0.07875 1:45 2:3.44 4:0.437 5:6.782 6:41.1 7:3.7886 8:5 9:398 10:15.2 11:393.87 12:6.68
29.8 0:0.12579 1:45 2:3.44 4:0.437 5:6.556 6:29.1 7:4.5667 8:5 9:398 10:15.2 11:382.84 12:4.56
34.9 0:0.0837 1:45 2:3.44 4:0.437 5:7.185 6:38.9 7:4.5667 8:5 9:398 10:15.2 11:396.9 12:5.39
37 0:0.09068 1:45 2:3.44 4:0.437 5:6.951 6:21.5 7:6.4798 8:5 9:398 10:15.2 11:377.68 12:5.1
30.5 0:0.06911 1:45 2:3.44 4:0.437 5:6.739 6:30.8 7:6.4798 8:5 9:398 10:15.2 11:389.71 12:4.69
36.4 0:0.08663999999999999 1:45 2:3.44 4:0.437 5:7.178 6:26.3 7:6.4798 8:5 9:398 10:15.2 11:390.49 12:2.87
31.1 0:0.02187 1:60 2:2.93 4:0.401 5:6.8 6:9.9 7:6.2196 8:1 9:265 10:15.6 11:393.37 12:5.03
29.1 0:0.01439 1:60 2:2.93 4:0.401 5:6.604 6:18.8 7:6.2196 8:1 9:265 10:15.6 11:376.7 12:4.38
50 0:0.01381 1:80 2:0.46 4:0.422 5:7.875 6:32 7:5.6484 8:4 9:255 10:14.4 11:394.23 12:2.97
33.3 0:0.04011 1:80 2:1.52 4:0.404 5:7.287 6:34.1 7:7.309 8:2 9:329 10:12.6 11:396.9 12:4.08
30.3 0:0.04666 1:80 2:1.52 4:0.404 5:7.107 6:36.6 7:7.309 8:2 9:329 10:12.6 11:354.31 12:8.609999999999999
34.6 0:0.03768 1:80 2:1.52 4:0.404 5:7.274 6:38.3 7:7.309 8:2 9:329 10:12.6 11:392.2 12:6.62
34.9 0:0.0315 1:95 2:1.47 4:0.403 5:6.975 6:15.3 7:7.6534 8:3 9:402 10:17 11:396.9 12:4.56
32.9 0:0.01778 1:95 2:1.47 4:0.403 5:7.135 6:13.9 7:7.6534 8:3 9:402 10:17 11:384.3 12:4.45
24.1 0:0.03445 1:82.5 2:2.03 4:0.415 5:6.162 6:38.4 7:6.27 8:2 9:348 10:14.7 11:393.77 12:7.43
42.3 0:0.02177 1:82.5 2:2.03 4:0.415 5:7.61 6:15.7 7:6.27 8:2 9:348 10:14.7 11:395.38 12:3.11
48.5 0:0.0351 1:95 2:2.68 4:0.4161 5:7.853 6:33.2 7:5.118 8:4 9:224 10:14.7 11:392.78 12:3.81
50 0:0.02009 1:95 2:2.68 4:0.4161 5:8.034000000000001 6:31.9 7:5.118 8:4 9:224 10:14.7 11:390.55 12:2.88
22.6 0:0.13642 2:10.59 4:0.489 5:5.891 6:22.3 7:3.9454 8:4 9:277 10:18.6 11:396.9 12:10.87
24.4 0:0.22969 2:10.59 4:0.489 5:6.326 6:52.5 7:4.3549 8:4 9:277 10:18.6 11:394.87 12:10.97
22.5 0:0.25199 2:10.59 4:0.489 5:5.783 6:72.7 7:4.3549 8:4 9:277 10:18.6 11:389.43 12:18.06
24.4 0:0.13587 2:10.59 3:1 4:0.489 5:6.064 6:59.1 7:4.2392 8:4 9:277 10:18.6 11:381.32 12:14.66
20 0:0.43571 2:10.59 3:1 4:0.489 5:5.344 6:100 7:3.875 8:4 9:277 10:18.6 11:396.9 12:23.09
21.7 0:0.17446 2:10.59 3:1 4:0.489 5:5.96 6:92.09999999999999 7:3.8771 8:4 9:277 10:18.6 11:393.25 12:17.27
19.3 0:0.37578 2:10.59 3:1 4:0.489 5:5.404 6:88.59999999999999 7:3.665 8:4 9:277 10:18.6 11:395.24 12:23.98
22.4 0:0.21719 2:10.59 3:1 4:0.489 5:5.807 6:53.8 7:3.6526 8:4 9:277 10:18.6 11:390.94 12:16.03
28.1 0:0.14052 2:10.59 4:0.489 5:6.375 6:32.3 7:3.9454 8:4 9:277 10:18.6 11:385.81 12:9.380000000000001
23.7 0:0.28955 2:10.59 4:0.489 5:5.412 6:9.800000000000001 7:3.5875 8:4 9:277 10:18.6 11:348.93 12:29.55
25 0:0.19802 2:10.59 4:0.489 5:6.182 6:42.4 7:3.9454 8:4 9:277 10:18.6 11:393.63 12:9.470000000000001
23.3 0:0.0456 2:13.89 3:1 4:0.55 5:5.888 6:56 7:3.1121 8:5 9:276 10:16.4 11:392.8 12:13.51
28.7 0:0.07013 2:13.89 4:0.55 5:6.642 6:85.09999999999999 7:3.4211 8:5 9:276 10:16.4 11:392.78 12:9.69
21.5 0:0.11069 2:13.89 3:1 4:0.55 5:5.951 6:93.8 7:2.8893 8:5 9:276 10:16.4 11:396.9 12:17.92
23 0:0.11425 2:13.89 3:1 4:0.55 5:6.373 6:92.40000000000001 7:3.3633 8:5 9:276 10:16.4 11:393.74 12:10.5
26.7 0:0.35809 2:6.2 3:1 4:0.507 5:6.951 6:88.5 7:2.8617 8:8 9:307 10:17.4 11:391.7 12:9.710000000000001
21.7 0:0.40771 2:6.2 3:1 4:0.507 5:6.164 6:91.3 7:3.048 8:8 9:307 10:17.4 11:395.24 12:21.46
27.5 0:0.62356 2:6.2 3:1 4:0.507 5:6.879 6:77.7 7:3.2721 8:8 9:307 10:17.4 11:390.39 12:9.93
30.1 0:0.6147 2:6.2 4:0.507 5:6.618 6:80.8 7:3.2721 8:8 9:307 10:17.4 11:396.9 12:7.6
44.8 0:0.31533 2:6.2 4:0.504 5:8.266 6:78.3 7:2.8944 8:8 9:307 10:17.4 11:385.05 12:4.14
50 0:0.52693 2:6.2 4:0.504 5:8.725 6:83 7:2.8944 8:8 9:307 10:17.4 11:382 12:4.63
37.6 0:0.38214 2:6.2 4:0.504 5:8.039999999999999 6:86.5 7:3.2157 8:8 9:307 10:17.4 11:387.38 12:3.13
31.6 0:0.41238 2:6.2 4:0.504 5:7.163 6:79.90000000000001 7:3.2157 8:8 9:307 10:17.4 11:372.08 12:6.36
46.7 0:0.29819 2:6.2 4:0.504 5:7.686 6:17 7:3.3751 8:8 9:307 10:17.4 11:377.51 12:3.92
31.5 0:0.44178 2:6.2 4:0.504 5:6.552 6:21.4 7:3.3751 8:8 9:307 10:17.4 11:380.34 12:3.76
24.3 0:0.537 2:6.2 4:0.504 5:5.981 6:68.09999999999999 7:3.6715 8:8 9:307 10:17.4 11:378.35 12:11.65
31.7 0:0.46296 2:6.2 4:0.504 5:7.412 6:76.90000000000001 7:3.6715 8:8 9:307 10:17.4 11:376.14 12:5.25
41.7 0:0.57529 2:6.2 4:0.507 5:8.337 6:73.3 7:3.8384 8:8 9:307 10:17.4 11:385.91 12:2.47
48.3 0:0.33147 2:6.2 4:0.507 5:8.247 6:70.40000000000001 7:3.6519 8:8 9:307 10:17.4 11:378.95 12:3.95
29 0:0.44791 2:6.2 3:1 4:0.507 5:6.726 6:66.5 7:3.6519 8:8 9:307 10:17.4 11:360.2 12:8.050000000000001
24 0:0.33045 2:6.2 4:0.507 5:6.086 6:61.5 7:3.6519 8:8 9:307 10:17.4 11:376.75 12:10.88
25.1 0:0.52058 2:6.2 3:1 4:0.507 5:6.631 6:76.5 7:4.148 8:8 9:307 10:17.4 11:388.45 12:9.539999999999999
31.5 0:0.51183 2:6.2 4:0.507 5:7.358 6:71.59999999999999 7:4.148 8:8 9:307 10:17.4 11:390.07 12:4.73
23.7 0:0.08244 1:30 2:4.93 4:0.428 5:6.481 6:18.5 7:6.1899 8:6 9:300 10:16.6 11:379.41 12:6.36
23.3 0:0.09252000000000001 1:30 2:4.93 4:0.428 5:6.606 6:42.2 7:6.1899 8:6 9:300 10:16.6 11:383.78 12:7.37
22 0:0.11329 1:30 2:4.93 4:0.428 5:6.897 6:54.3 7:6.3361 8:6 9:300 10:16.6 11:391.25 12:11.38
20.1 0:0.10612 1:30 2:4.93 4:0.428 5:6.095 6:65.09999999999999 7:6.3361 8:6 9:300 10:16.6 11:394.62 12:12.4
22.2 0:0.1029 1:30 2:4.93 4:0.428 5:6.358 6:52.9 7:7.0355 8:6 9:300 10:16.6 11:372.75 12:11.22
23.7 0:0.12757 1:30 2:4.93 4:0.428 5:6.393 6:7.8 7:7.0355 8:6 9:300 10:16.6 11:374.71 12:5.19
17.6 0:0.20608 1:22 2:5.86 4:0.431 5:5.593 6:76.5 7:7.9549 8:7 9:330 10:19.1 11:372.49 12:12.5
18.5 0:0.19133 1:22 2:5.86 4:0.431 5:5.605 6:70.2 7:7.9549 8:7 9:330 10:19.1 11:389.13 12:18.46
24.3 0:0.33983 1:22 2:5.86 4:0.431 5:6.108 6:34.9 7:8.0555 8:7 9:330 10:19.1 11:390.18 12:9.16
20.5 0:0.19657 1:22 2:5.86 4:0.431 5:6.226 6:79.2 7:8.0555 8:7 9:330 10:19.1 11:376.14 12:10.15
24.5 0:0.16439 1:22 2:5.86 4:0.431 5:6.433 6:49.1 7:7.8265 8:7 9:330 10:19.1 11:374.71 12:9.52
26.2 0:0.19073 1:22 2:5.86 4:0.431 5:6.718 6:17.5 7:7.8265 8:7 9:330 10:19.1 11:393.74 12:6.56
24.4 0:0.1403 1:22 2:5.86 4:0.431 5:6.487 6:13 7:7.3967 8:7 9:330 10:19.1 11:396.28 12:5.9
24.8 0:0.21409 1:22 2:5.86 4:0.431 5:6.438 6:8.9 7:7.3967 8:7 9:330 10:19.1 11:377.07 12:3.59
29.6 0:0.08221000000000001 1:22 2:5.86 4:0.431 5:6.957 6:6.8 7:8.906700000000001 8:7 9:330 10:19.1 11:386.09 12:3.53
42.8 0:0.36894 1:22 2:5.86 4:0.431 5:8.259 6:8.4 7:8.906700000000001 8:7 9:330 10:19.1 11:396.9 12:3.54
21.9 0:0.04819 1:80 2:3.64 4:0.392 5:6.108 6:32 7:9.2203 8:1 9:315 10:16.4 11:392.89 12:6.57
20.9 0:0.03548 1:80 2:3.64 4:0.392 5:5.876 6:19.1 7:9.2203 8:1 9:315 10:16.4 11:395.18 12:9.25
44 0:0.01538 1:90 2:3.75 4:0.394 5:7.454 6:34.2 7:6.3361 8:3 9:244 10:15.9 11:386.34 12:3.11
50 0:0.61154 1:20 2:3.97 4:0.647 5:8.704000000000001 6:86.90000000000001 7:1.801 8:5 9:264 10:13 11:389.7 12:5.12
36 0:0.66351 1:20 2:3.97 4:0.647 5:7.333 6:100 7:1.8946 8:5 9:264 10:13 11:383.29 12:7.79
30.1 0:0.65665 1:20 2:3.97 4:0.647 5:6.842 6:100 7:2.0107 8:5 9:264 10:13 11:391.93 12:6.9
33.8 0:0.54011 1:20 2:3.97 4:0.647 5:7.203 6:81.8 7:2.1121 8:5 9:264 10:13 11:392.8 12:9.59
43.1 0:0.53412 1:20 2:3.97 4:0.647 5:7.52 6:89.40000000000001 7:2.1398 8:5 9:264 10:13 11:388.37 12:7.26
48.8 0:0.52014 1:20 2:3.97 4:0.647 5:8.398 6:91.5 7:2.2885 8:5 9:264 10:13 11:386.86 12:5.91
31 0:0.82526 1:20 2:3.97 4:0.647 5:7.327 6:94.5 7:2.0788 8:5 9:264 10:13 11:393.42 12:11.25
36.5 0:0.5500699999999999 1:20 2:3.97 4:0.647 5:7.206 6:91.59999999999999 7:1.9301 8:5 9:264 10:13 11:387.89 12:8.1
22.8 0:0.76162 1:20 2:3.97 4:0.647 5:5.56 6:62.8 7:1.9865 8:5 9:264 10:13 11:392.4 12:10.45
30.7 0:0.7857 1:20 2:3.97 4:0.647 5:7.014 6:84.59999999999999 7:2.1329 8:5 9:264 10:13 11:384.07 12:14.79
50 0:0.57834 1:20 2:3.97 4:0.575 5:8.297000000000001 6:67 7:2.4216 8:5 9:264 10:13 11:384.54 12:7.44
43.5 0:0.5405 1:20 2:3.97 4:0.575 5:7.47 6:52.6 7:2.872 8:5 9:264 10:13 11:390.3 12:3.16
20.7 0:0.09064999999999999 1:20 2:6.96 3:1 4:0.464 5:5.92 6:61.5 7:3.9175 8:3 9:223 10:18.6 11:391.34 12:13.65
21.1 0:0.29916 1:20 2:6.96 4:0.464 5:5.856 6:42.1 7:4.429 8:3 9:223 10:18.6 11:388.65 12:13
25.2 0:0.16211 1:20 2:6.96 4:0.464 5:6.24 6:16.3 7:4.429 8:3 9:223 10:18.6 11:396.9 12:6.59
24.4 0:0.1146 1:20 2:6.96 4:0.464 5:6.538 6:58.7 7:3.9175 8:3 9:223 10:18.6 11:394.96 12:7.73
35.2 0:0.22188 1:20 2:6.96 3:1 4:0.464 5:7.691 6:51.8 7:4.3665 8:3 9:223 10:18.6 11:390.77 12:6.58
32.4 0:0.05644 1:40 2:6.41 3:1 4:0.447 5:6.758 6:32.9 7:4.0776 8:4 9:254 10:17.6 11:396.9 12:3.53
32 0:0.09604 1:40 2:6.41 4:0.447 5:6.854 6:42.8 7:4.2673 8:4 9:254 10:17.6 11:396.9 12:2.98
33.2 0:0.10469 1:40 2:6.41 3:1 4:0.447 5:7.267 6:49 7:4.7872 8:4 9:254 10:17.6 11:389.25 12:6.05
33.1 0:0.06127 1:40 2:6.41 3:1 4:0.447 5:6.826 6:27.6 7:4.8628 8:4 9:254 10:17.6 11:393.45 12:4.16
29.1 0:0.07978 1:40 2:6.41 4:0.447 5:6.482 6:32.1 7:4.1403 8:4 9:254 10:17.6 11:396.9 12:7.19
35.1 0:0.21038 1:20 2:3.33 4:0.4429 5:6.812 6:32.2 7:4.1007 8:5 9:216 10:14.9 11:396.9 12:4.85
45.4 0:0.03578 1:20 2:3.33 4:0.4429 5:7.82 6:64.5 7:4.6947 8:5 9:216 10:14.9 11:387.31 12:3.76
35.4 0:0.03705 1:20 2:3.33 4:0.4429 5:6.968 6:37.2 7:5.2447 8:5 9:216 10:14.9 11:392.23 12:4.59
46 0:0.06129 1:20 2:3.33 3:1 4:0.4429 5:7.645 6:49.7 7:5.2119 8:5 9:216 10:14.9 11:377.07 12:3.01
50 0:0.01501 1:90 2:1.21 3:1 4:0.401 5:7.923 6:24.8 7:5.885 8:1 9:198 10:13.6 11:395.52 12:3.16
32.2 0:0.00906 1:90 2:2.97 4:0.4 5:7.088 6:20.8 7:7.3073 8:1 9:285 10:15.3 11:394.72 12:7.85
22 0:0.01096 1:55 2:2.25 4:0.389 5:6.453 6:31.9 7:7.3073 8:1 9:300 10:15.3 11:394.72 12:8.23
20.1 0:0.01965 1:80 2:1.76 4:0.385 5:6.23 6:31.5 7:9.0892 8:1 9:241 10:18.2 11:341.6 12:12.93
23.2 0:0.03871 1:52.5 2:5.32 4:0.405 5:6.209 6:31.3 7:7.3172 8:6 9:293 10:16.6 11:396.9 12:7.14
22.3 0:0.0459 1:52.5 2:5.32 4:0.405 5:6.315 6:45.6 7:7.3172 8:6 9:293 10:16.6 11:396.9 12:7.6
24.8 0:0.04297 1:52.5 2:5.32 4:0.405 5:6.565 6:22.9 7:7.3172 8:6 9:293 10:16.6 11:371.72 12:9.51
28.5 0:0.03502 1:80 2:4.95 4:0.411 5:6.861 6:27.9 7:5.1167 8:4 9:245 10:19.2 11:396.9 12:3.33
37.3 0:0.07886 1:80 2:4.95 4:0.411 5:7.148 6:27.7 7:5.1167 8:4 9:245 10:19.2 11:396.9 12:3.56
27.9 0:0.03615 1:80 2:4.95 4:0.411 5:6.63 6:23.4 7:5.1167 8:4 9:245 10:19.2 11:396.9 12:4.7
23.9 0:0.08265 2:13.92 4:0.437 5:6.127 6:18.4 7:5.5027 8:4 9:289 10:16 11:396.9 12:8.58
21.7 0:0.08198999999999999 2:13.92 4:0.437 5:6.009 6:42.3 7:5.5027 8:4 9:289 10:16 11:396.9 12:10.4
28.6 0:0.12932 2:13.92 4:0.437 5:6.678 6:31.1 7:5.9604 8:4 9:289 10:16 11:396.9 12:6.27
27.1 0:0.05372 2:13.92 4:0.437 5:6.549 6:51 7:5.9604 8:4 9:289 10:16 11:392.85 12:7.39
20.3 0:0.14103 2:13.92 4:0.437 5:5.79 6:58 7:6.32 8:4 9:289 10:16 11:396.9 12:15.84
22.5 0:0.06466 1:70 2:2.24 4:0.4 5:6.345 6:20.1 7:7.8278 8:5 9:358 10:14.8 11:368.24 12:4.97
29 0:0.05561 1:70 2:2.24 4:0.4 5:7.041 6:10 7:7.8278 8:5 9:358 10:14.8 11:371.58 12:4.74
24.8 0:0.04417 1:70 2:2.24 4:0.4 5:6.871 6:47.4 7:7.8278 8:5 9:358 10:14.8 11:390.86 12:6.07
22 0:0.03537 1:34 2:6.09 4:0.433 5:6.59 6:40.4 7:5.4917 8:7 9:329 10:16.1 11:395.75 12:9.5
26.4 0:0.09266000000000001 1:34 2:6.09 4:0.433 5:6.495 6:18.4 7:5.4917 8:7 9:329 10:16.1 11:383.61 12:8.67
33.1 0:0.1 1:34 2:6.09 4:0.433 5:6.982 6:17.7 7:5.4917 8:7 9:329 10:16.1 11:390.43 12:4.86
36.1 0:0.05515 1:33 2:2.18 4:0.472 5:7.236 6:41.1 7:4.022 8:7 9:222 10:18.4 11:393.68 12:6.93
28.4 0:0.05479 1:33 2:2.18 4:0.472 5:6.616 6:58.1 7:3.37 8:7 9:222 10:18.4 11:393.36 12:8.93
33.4 0:0.07503 1:33 2:2.18 4:0.472 5:7.42 6:71.90000000000001 7:3.0992 8:7 9:222 10:18.4 11:396.9 12:6.47
28.2 0:0.04932 1:33 2:2.18 4:0.472 5:6.849 6:70.3 7:3.1827 8:7 9:222 10:18.4 11:396.9 12:7.53
22.8 0:0.49298 2:9.9 4:0.544 5:6.635 6:82.5 7:3.3175 8:4 9:304 10:18.4 11:396.9 12:4.54
20.3 0:0.3494 2:9.9 4:0.544 5:5.972 6:76.7 7:3.1025 8:4 9:304 10:18.4 11:396.24 12:9.970000000000001
16.1 0:2.63548 2:9.9 4:0.544 5:4.973 6:37.8 7:2.5194 8:4 9:304 10:18.4 11:350.45 12:12.64
22.1 0:0.7904099999999999 2:9.9 4:0.544 5:6.122 6:52.8 7:2.6403 8:4 9:304 10:18.4 11:396.9 12:5.98
19.4 0:0.26169 2:9.9 4:0.544 5:6.023 6:90.40000000000001 7:2.834 8:4 9:304 10:18.4 11:396.3 12:11.72
21.6 0:0.26938 2:9.9 4:0.544 5:6.266 6:82.8 7:3.2628 8:4 9:304 10:18.4 11:393.39 12:7.9
23.8 0:0.3692 2:9.9 4:0.544 5:6.567 6:87.3 7:3.6023 8:4 9:304 10:18.4 11:395.69 12:9.279999999999999
16.2 0:0.25356 2:9.9 4:0.544 5:5.705 6:77.7 7:3.945 8:4 9:304 10:18.4 11:396.42 12:11.5
17.8 0:0.31827 2:9.9 4:0.544 5:5.914 6:83.2 7:3.9986 8:4 9:304 10:18.4 11:390.7 12:18.33
19.8 0:0.24522 2:9.9 4:0.544 5:5.782 6:71.7 7:4.0317 8:4 9:304 10:18.4 11:396.9 12:15.94
23.1 0:0.40202 2:9.9 4:0.544 5:6.382 6:67.2 7:3.5325 8:4 9:304 10:18.4 11:395.21 12:10.36
21 0:0.47547 2:9.9 4:0.544 5:6.113 6:58.8 7:4.0019 8:4 9:304 10:18.4 11:396.23 12:12.73
23.8 0:0.1676 2:7.38 4:0.493 5:6.426 6:52.3 7:4.5404 8:5 9:287 10:19.6 11:396.9 12:7.2
23.1 0:0.18159 2:7.38 4:0.493 5:6.376 6:54.3 7:4.5404 8:5 9:287 10:19.6 11:396.9 12:6.87
20.4 0:0.35114 2:7.38 4:0.493 5:6.041 6:49.9 7:4.7211 8:5 9:287 10:19.6 11:396.9 12:7.7
18.5 0:0.28392 2:7.38 4:0.493 5:5.708 6:74.3 7:4.7211 8:5 9:287 10:19.6 11:391.13 12:11.74
25 0:0.34109 2:7.38 4:0.493 5:6.415 6:40.1 7:4.7211 8:5 9:287 10:19.6 11:396.9 12:6.12
24.6 0:0.19186 2:7.38 4:0.493 5:6.431 6:14.7 7:5.4159 8:5 9:287 10:19.6 11:393.68 12:5.08
23 0:0.30347 2:7.38 4:0.493 5:6.312 6:28.9 7:5.4159 8:5 9:287 10:19.6 11:396.9 12:6.15
22.2 0:0.24103 2:7.38 4:0.493 5:6.083 6:43.7 7:5.4159 8:5 9:287 10:19.6 11:396.9 12:12.79
19.3 0:0.06617000000000001 2:3.24 4:0.46 5:5.868 6:25.8 7:5.2146 8:4 9:430 10:16.9 11:382.44 12:9.970000000000001
22.6 0:0.06723999999999999 2:3.24 4:0.46 5:6.333 6:17.2 7:5.2146 8:4 9:430 10:16.9 11:375.21 12:7.34
19.8 0:0.04544 2:3.24 4:0.46 5:6.144 6:32.2 7:5.8736 8:4 9:430 10:16.9 11:368.57 12:9.09
17.1 0:0.05023 1:35 2:6.06 4:0.4379 5:5.706 6:28.4 7:6.6407 8:1 9:304 10:16.9 11:394.02 12:12.43
19.4 0:0.03466 1:35 2:6.06 4:0.4379 5:6.031 6:23.3 7:6.6407 8:1 9:304 10:16.9 11:362.25 12:7.83
22.2 0:0.05083 2:5.19 4:0.515 5:6.316 6:38.1 7:6.4584 8:5 9:224 10:20.2 11:389.71 12:5.68
20.7 0:0.03738 2:5.19 4:0.515 5:6.31 6:38.5 7:6.4584 8:5 9:224 10:20.2 11:389.4 12:6.75
21.1 0:0.03961 2:5.19 4:0.515 5:6.037 6:34.5 7:5.9853 8:5 9:224 10:20.2 11:396.9 12:8.01
19.5 0:0.03427 2:5.19 4:0.515 5:5.869 6:46.3 7:5.2311 8:5 9:224 10:20.2 11:396.9 12:9.800000000000001
18.5 0:0.03041 2:5.19 4:0.515 5:5.895 6:59.6 7:5.615 8:5 9:224 10:20.2 11:394.81 12:10.56
20.6 0:0.03306 2:5.19 4:0.515 5:6.059 6:37.3 7:4.8122 8:5 9:224 10:20.2 11:396.14 12:8.51
19 0:0.05497 2:5.19 4:0.515 5:5.985 6:45.4 7:4.8122 8:5 9:224 10:20.2 11:396.9 12:9.74
18.7 0:0.06151 2:5.19 4:0.515 5:5.968 6:58.5 7:4.8122 8:5 9:224 10:20.2 11:396.9 12:9.289999999999999
32.7 0:0.01301 1:35 2:1.52 4:0.442 5:7.241 6:49.3 7:7.0379 8:1 9:284 10:15.5 11:394.74 12:5.49
16.5 0:0.02498 2:1.89 4:0.518 5:6.54 6:59.7 7:6.2669 8:1 9:422 10:15.9 11:389.96 12:8.65
23.9 0:0.02543 1:55 2:3.78 4:0.484 5:6.696 6:56.4 7:5.7321 8:5 9:370 10:17.6 11:396.9 12:7.18
31.2 0:0.03049 1:55 2:3.78 4:0.484 5:6.874 6:28.1 7:6.4654 8:5 9:370 10:17.6 11:387.97 12:4.61
17.5 0:0.03113 2:4.39 4:0.442 5:6.014 6:48.5 7:8.0136 8:3 9:352 10:18.8 11:385.64 12:10.53
17.2 0:0.06162 2:4.39 4:0.442 5:5.898 6:52.3 7:8.0136 8:3 9:352 10:18.8 11:364.61 12:12.67
23.1 0:0.0187 1:85 2:4.15 4:0.429 5:6.516 6:27.7 7:8.535299999999999 8:4 9:351 10:17.9 11:392.43 12:6.36
24.5 0:0.01501 1:80 2:2.01 4:0.435 5:6.635 6:29.7 7:8.343999999999999 8:4 9:280 10:17 11:390.94 12:5.99
26.6 0:0.02899 1:40 2:1.25 4:0.429 5:6.939 6:34.5 7:8.7921 8:1 9:335 10:19.7 11:389.85 12:5.89
22.9 0:0.06211 1:40 2:1.25 4:0.429 5:6.49 6:44.4 7:8.7921 8:1 9:335 10:19.7 11:396.9 12:5.98
24.1 0:0.0795 1:60 2:1.69 4:0.411 5:6.579 6:35.9 7:10.7103 8:4 9:411 10:18.3 11:370.78 12:5.49
18.6 0:0.07244 1:60 2:1.69 4:0.411 5:5.884 6:18.5 7:10.7103 8:4 9:411 10:18.3 11:392.33 12:7.79
30.1 0:0.01709 1:90 2:2.02 4:0.41 5:6.728 6:36.1 7:12.1265 8:5 9:187 10:17 11:384.46 12:4.5
18.2 0:0.04301 1:80 2:1.91 4:0.413 5:5.663 6:21.9 7:10.5857 8:4 9:334 10:22 11:382.8 12:8.050000000000001
20.6 0:0.10659 1:80 2:1.91 4:0.413 5:5.936 6:19.5 7:10.5857 8:4 9:334 10:22 11:376.04 12:5.57
17.8 0:8.98296 2:18.1 3:1 4:0.77 5:6.212 6:97.40000000000001 7:2.1222 8:24 9:666 10:20.2 11:377.73 12:17.6
21.7 0:3.8497 2:18.1 3:1 4:0.77 5:6.395 6:91 7:2.5052 8:24 9:666 10:20.2 11:391.34 12:13.27
22.7 0:5.20177 2:18.1 3:1 4:0.77 5:6.127 6:83.40000000000001 7:2.7227 8:24 9:666 10:20.2 11:395.43 12:11.48
22.6 0:4.26131 2:18.1 4:0.77 5:6.112 6:81.3 7:2.5091 8:24 9:666 10:20.2 11:390.74 12:12.67
25 0:4.54192 2:18.1 4:0.77 5:6.398 6:88 7:2.5182 8:24 9:666 10:20.2 11:374.56 12:7.79
19.9 0:3.83684 2:18.1 4:0.77 5:6.251 6:91.09999999999999 7:2.2955 8:24 9:666 10:20.2 11:350.65 12:14.19
20.8 0:3.67822 2:18.1 4:0.77 5:5.362 6:96.2 7:2.1036 8:24 9:666 10:20.2 11:380.79 12:10.19
16.8 0:4.22239 2:18.1 3:1 4:0.77 5:5.803 6:89 7:1.9047 8:24 9:666 10:20.2 11:353.04 12:14.64
21.9 0:3.47428 2:18.1 3:1 4:0.718 5:8.779999999999999 6:82.90000000000001 7:1.9047 8:24 9:666 10:20.2 11:354.55 12:5.29
27.5 0:4.55587 2:18.1 4:0.718 5:3.561 6:87.90000000000001 7:1.6132 8:24 9:666 10:20.2 11:354.7 12:7.12
21.9 0:3.69695 2:18.1 4:0.718 5:4.963 6:91.40000000000001 7:1.7523 8:24 9:666 10:20.2 11:316.03 12:14
23.1 0:13.5222 2:18.1 4:0.631 5:3.863 6:100 7:1.5106 8:24 9:666 10:20.2 11:131.42 12:13.33
50 0:4.89822 2:18.1 4:0.631 5:4.97 6:100 7:1.3325 8:24 9:666 10:20.2 11:375.52 12:3.26
50 0:5.66998 2:18.1 3:1 4:0.631 5:6.683 6:96.8 7:1.3567 8:24 9:666 10:20.2 11:375.33 12:3.73
50 0:6.53876 2:18.1 3:1 4:0.631 5:7.016 6:97.5 7:1.2024 8:24 9:666 10:20.2 11:392.05 12:2.96
50 0:9.2323 2:18.1 4:0.631 5:6.216 6:100 7:1.1691 8:24 9:666 10:20.2 11:366.15 12:9.529999999999999
50 0:8.267250000000001 2:18.1 3:1 4:0.668 5:5.875 6:89.59999999999999 7:1.1296 8:24 9:666 10:20.2 11:347.88 12:8.880000000000001
13.8 0:11.1081 2:18.1 4:0.668 5:4.906 6:100 7:1.1742 8:24 9:666 10:20.2 11:396.9 12:34.77
13.8 0:18.4982 2:18.1 4:0.668 5:4.138 6:100 7:1.137 8:24 9:666 10:20.2 11:396.9 12:37.97
15 0:19.6091 2:18.1 4:0.671 5:7.313 6:97.90000000000001 7:1.3163 8:24 9:666 10:20.2 11:396.9 12:13.44
13.9 0:15.288 2:18.1 4:0.671 5:6.649 6:93.3 7:1.3449 8:24 9:666 10:20.2 11:363.02 12:23.24
13.3 0:9.82349 2:18.1 4:0.671 5:6.794 6:98.8 7:1.358 8:24 9:666 10:20.2 11:396.9 12:21.24
13.1 0:23.6482 2:18.1 4:0.671 5:6.38 6:96.2 7:1.3861 8:24 9:666 10:20.2 11:396.9 12:23.69
10.2 0:17.8667 2:18.1 4:0.671 5:6.223 6:100 7:1.3861 8:24 9:666 10:20.2 11:393.74 12:21.78
10.4 0:88.97620000000001 2:18.1 4:0.671 5:6.968 6:91.90000000000001 7:1.4165 8:24 9:666 10:20.2 11:396.9 12:17.21
10.9 0:15.8744 2:18.1 4:0.671 5:6.545 6:99.09999999999999 7:1.5192 8:24 9:666 10:20.2 11:396.9 12:21.08
11.3 0:9.18702 2:18.1 4:0.7 5:5.536 6:100 7:1.5804 8:24 9:666 10:20.2 11:396.9 12:23.6
12.3 0:7.99248 2:18.1 4:0.7 5:5.52 6:100 7:1.5331 8:24 9:666 10:20.2 11:396.9 12:24.56
8.800000000000001 0:20.0849 2:18.1 4:0.7 5:4.368 6:91.2 7:1.4395 8:24 9:666 10:20.2 11:285.83 12:30.63
7.2 0:16.8118 2:18.1 4:0.7 5:5.277 6:98.09999999999999 7:1.4261 8:24 9:666 10:20.2 11:396.9 12:30.81
10.5 0:24.3938 2:18.1 4:0.7 5:4.652 6:100 7:1.4672 8:24 9:666 10:20.2 11:396.9 12:28.28
7.4 0:22.5971 2:18.1 4:0.7 5:5 6:89.5 7:1.5184 8:24 9:666 10:20.2 11:396.9 12:31.99
10.2 0:14.3337 2:18.1 4:0.7 5:4.88 6:100 7:1.5895 8:24 9:666 10:20.2 11:372.92 12:30.62
11.5 0:8.15174 2:18.1 4:0.7 5:5.39 6:98.90000000000001 7:1.7281 8:24 9:666 10:20.2 11:396.9 12:20.85
15.1 0:6.96215 2:18.1 4:0.7 5:5.713 6:97 7:1.9265 8:24 9:666 10:20.2 11:394.43 12:17.11
23.2 0:5.29305 2:18.1 4:0.7 5:6.051 6:82.5 7:2.1678 8:24 9:666 10:20.2 11:378.38 12:18.76
9.699999999999999 0:11.5779 2:18.1 4:0.7 5:5.036 6:97 7:1.77 8:24 9:666 10:20.2 11:396.9 12:25.68
13.8 0:8.64476 2:18.1 4:0.6929999999999999 5:6.193 6:92.59999999999999 7:1.7912 8:24 9:666 10:20.2 11:396.9 12:15.17
12.7 0:13.3598 2:18.1 4:0.6929999999999999 5:5.887 6:94.7 7:1.7821 8:24 9:666 10:20.2 11:396.9 12:16.35
13.1 0:8.716749999999999 2:18.1 4:0.6929999999999999 5:6.471 6:98.8 7:1.7257 8:24 9:666 10:20.2 11:391.98 12:17.12
12.5 0:5.87205 2:18.1 4:0.6929999999999999 5:6.405 6:96 7:1.6768 8:24 9:666 10:20.2 11:396.9 12:19.37
8.5 0:7.67202 2:18.1 4:0.6929999999999999 5:5.747 6:98.90000000000001 7:1.6334 8:24 9:666 10:20.2 11:393.1 12:19.92
5 0:38.3518 2:18.1 4:0.6929999999999999 5:5.453 6:100 7:1.4896 8:24 9:666 10:20.2 11:396.9 12:30.59
6.3 0:9.916550000000001 2:18.1 4:0.6929999999999999 5:5.852 6:77.8 7:1.5004 8:24 9:666 10:20.2 11:338.16 12:29.97
5.6 0:25.0461 2:18.1 4:0.6929999999999999 5:5.987 6:100 7:1.5888 8:24 9:666 10:20.2 11:396.9 12:26.77
7.2 0:14.2362 2:18.1 4:0.6929999999999999 5:6.343 6:100 7:1.5741 8:24 9:666 10:20.2 11:396.9 12:20.32
12.1 0:9.59571 2:18.1 4:0.6929999999999999 5:6.404 6:100 7:1.639 8:24 9:666 10:20.2 11:376.11 12:20.31
8.300000000000001 0:24.8017 2:18.1 4:0.6929999999999999 5:5.349 6:96 7:1.7028 8:24 9:666 10:20.2 11:396.9 12:19.77
8.5 0:41.5292 2:18.1 4:0.6929999999999999 5:5.531 6:85.40000000000001 7:1.6074 8:24 9:666 10:20.2 11:329.46 12:27.38
5 0:67.9208 2:18.1 4:0.6929999999999999 5:5.683 6:100 7:1.4254 8:24 9:666 10:20.2 11:384.97 12:22.98
